[
  {
    "name": "Nederlands",
    "code": "nl"
  },
  {
    "name": "Frans",
    "code": "fr"
  },
  {
    "name": "Afrikaans",
    "code": "af"
  },
  {
    "name": "Albanees",
    "code": "sq"
  },
  {
    "name": "Amharic",
    "code": "ben"
  },
  {
    "name": "Arabisch",
    "code": "ar"
  },
  {
    "name": "Armeens",
    "code": "hy"
  },
  {
    "name": "Azerbeidzjaans",
    "code": "az"
  },
  {
    "name": "Baskisch",
    "code": "eu"
  },
  {
    "name": "Wit-Russisch",
    "code": "be"
  },
  {
    "name": "Bengaals",
    "code": "bn"
  },
  {
    "name": "Bosnisch",
    "code": "bs"
  },
  {
    "name": "Bulgaars",
    "code": "bg"
  },
  {
    "name": "Catalaans",
    "code": "ca"
  },
  {
    "name": "Cebuano",
    "code": "ceb"
  },
  {
    "name": "Chichewa",
    "code": "ny"
  },
  {
    "name": "Chinees (vereenvoudigd)",
    "code": "zh-cn"
  },
  {
    "name": "Chinees (traditioneel)",
    "code": "zh-tw"
  },
  {
    "name": "Corsicaans",
    "code": "co"
  },
  {
    "name": "Kroatisch",
    "code": "hr"
  },
  {
    "name": "Tsjechisch",
    "code": "cs"
  },
  {
    "name": "Deens",
    "code": "da"
  },
  {
    "name": "Engels",
    "code": "en"
  },
  {
    "name": "Esperanto",
    "code": "eo"
  },
  {
    "name": "Ests",
    "code": "et"
  },
  {
    "name": "Filipijns",
    "code": "tl"
  },
  {
    "name": "Fins",
    "code": "fi"
  },
  {
    "name": "Fries",
    "code": "fy"
  },
  {
    "name": "Galisisch",
    "code": "gl"
  },
  {
    "name": "Georgisch",
    "code": "ka"
  },
  {
    "name": "Duits",
    "code": "de"
  },
  {
    "name": "Grieks",
    "code": "el"
  },
  {
    "name": "Gujarati",
    "code": "gu"
  },
  {
    "name": "Haitiaans Creools",
    "code": "ht"
  },
  {
    "name": "Hausa",
    "code": "ha"
  },
  {
    "name": "Hawaiaans",
    "code": "haw"
  },
  {
    "name": "Hebreeuws",
    "code": "iw"
  },
  {
    "name": "Hindi",
    "code": "hallo"
  },
  {
    "name": "Hmong",
    "code": "hmn"
  },
  {
    "name": "Hongaars",
    "code": "hu"
  },
  {
    "name": "IJslands",
    "code": "is"
  },
  {
    "name": "Igbo",
    "code": "ig"
  },
  {
    "name": "Indonesian",
    "code": "id"
  },
  {
    "name": "iers",
    "code": "ga"
  },
  {
    "name": "Italiaans",
    "code": "it"
  },
  {
    "name": "Japans",
    "code": "ja"
  },
  {
    "name": "Javaans",
    "code": "jw"
  },
  {
    "name": "Kannada",
    "code": "kn"
  },
  {
    "name": "Kazakh",
    "code": "kk"
  },
  {
    "name": "Khmer",
    "code": "km"
  },
  {
    "name": "Koreaans",
    "code": "ko"
  },
  {
    "name": "Koerdisch (kurmanji)",
    "code": "ku"
  },
  {
    "name": "Kyrgyz",
    "code": "ky"
  },
  {
    "name": "Lao",
    "code": "lo"
  },
  {
    "name": "Latijn",
    "code": "la"
  },
  {
    "name": "Lets",
    "code": "lv"
  },
  {
    "name": "Litouws",
    "code": "lt"
  },
  {
    "name": "luxembourgish",
    "code": "lb"
  },
  {
    "name": "Macedonisch",
    "code": "mk"
  },
  {
    "name": "Malagasy",
    "code": "mg"
  },
  {
    "name": "Maleis",
    "code": "ms"
  },
  {
    "name": "Malayalam",
    "code": "ml"
  },
  {
    "name": "Maltees",
    "code": "mt"
  },
  {
    "name": "Maori",
    "code": "mi"
  },
  {
    "name": "Marathi",
    "code": "dhr"
  },
  {
    "name": "Mongools",
    "code": "mn"
  },
  {
    "name": "Birmaans",
    "code": "my"
  },
  {
    "name": "Nepalees",
    "code": "ne"
  },
  {
    "name": "Noors",
    "code": "no"
  },
  {
    "name": "Pashto",
    "code": "ps"
  },
  {
    "name": "Persisch",
    "code": "fa"
  },
  {
    "name": "Pools",
    "code": "pl"
  },
  {
    "name": "Portugees",
    "code": "pt"
  },
  {
    "name": "Punjabi",
    "code": "pa"
  },
  {
    "name": "Roemeens",
    "code": "ro"
  },
  {
    "name": "Russisch",
    "code": "ru"
  },
  {
    "name": "Samoaans",
    "code": "sm"
  },
  {
    "name": "Schots Gaelic",
    "code": "gd"
  },
  {
    "name": "Servisch",
    "code": "sr"
  },
  {
    "name": "Sesotho",
    "code": "st"
  },
  {
    "name": "Shona",
    "code": "sn"
  },
  {
    "name": "Sindhi",
    "code": "sd"
  },
  {
    "name": "Sinhala",
    "code": "si"
  },
  {
    "name": "Slowaaks",
    "code": "sk"
  },
  {
    "name": "Sloveens",
    "code": "sl"
  },
  {
    "name": "Somali",
    "code": "zo"
  },
  {
    "name": "Spaans",
    "code": "es"
  },
  {
    "name": "Sundanese",
    "code": "su"
  },
  {
    "name": "Swahili",
    "code": "sw"
  },
  {
    "name": "Zweeds",
    "code": "sv"
  },
  {
    "name": "Tajik",
    "code": "tg"
  },
  {
    "name": "Tamil",
    "code": "ta"
  },
  {
    "name": "Telugu",
    "code": "te"
  },
  {
    "name": "Thais",
    "code": "th"
  },
  {
    "name": "Turks",
    "code": "tr"
  },
  {
    "name": "Oekrains",
    "code": "uk"
  },
  {
    "name": "Urdu",
    "code": "ur"
  },
  {
    "name": "Oezbeeks",
    "code": "uz"
  },
  {
    "name": "Vietnamees",
    "code": "vi"
  },
  {
    "name": "Welsh",
    "code": "cy"
  },
  {
    "name": "Xhosa",
    "code": "xh"
  },
  {
    "name": "jiddisch",
    "code": "yi"
  },
  {
    "name": "Yoruba",
    "code": "yo"
  },
  {
    "name": "Zulu",
    "code": "zu"
  },
  {
    "name": "Filipino",
    "code": "fil"
  },
  {
    "name": "Hebreeuws",
    "code": "hij"
  }
]
